{
  "token": "NDU2NjUxMzgxMTI2OTg3Nzk0.DgN0jg.tPu0-UMjdFyIDzSAFNUdUYM9fdU",
  "commandPrefix": "!",
  "logSeverity": 3,
  "allowTreasuryInfoCommand": true,
  "invalidWithdrawMessage": "Withdraw must be in the format **!withdraw amount address**. For example: `!withdraw 10 Axdofh08IOkadlskf`",
  "commands": [
    {
      "name": "help",
      "description": "Displays this menu."
    },
    {
      "name": "withdraw amount address",
      "description": "Withdraws **amount** coins to **address**. Requires a balance greater than **amount**.",
      "example": "withdraw 15 A8AsdFu9oWilIOx89aiosfI8i"
    },
    {
      "name": "balance",
      "description": "shows AceD balance in wallet"
    },
    {
      "name": "deposit",
      "description": "Shows your wallet deposit address. Send AceD to this address to deposit coins."
    },
    {
      "name": "slots betAmount",
      "description": "Plays slots with **betAmount** coins.",
      "example": "slots 1"
    },
    {
      "name": "paytable",
      "description": "Displays the paytable for slots."
    }
  ]
}